<svg xmlns="http://www.w3.org/2000/svg" width="348.639" height="40" viewBox="0 0 348.639 40">
  <g id="Сгруппировать_155" data-name="Сгруппировать 155" transform="translate(-60.784 -5842.783)">
    <g id="Сгруппировать_154" data-name="Сгруппировать 154">
      <path id="Контур_1467" data-name="Контур 1467" d="M135.09,5870.033v-17.5h14.288v17.5h-2.442v-15.45h-9.4v15.45Z" fill="#c94a33" opacity="0.941"/>
      <path id="Контур_1468" data-name="Контур 1468" d="M161.588,5870.283a9,9,0,0,1-3.013-.513,7.023,7.023,0,0,1-2.572-1.587,7.788,7.788,0,0,1-1.793-2.75,10.766,10.766,0,0,1-.675-4.025v-.5a10.076,10.076,0,0,1,.675-3.875,7.759,7.759,0,0,1,1.793-2.688,6.989,6.989,0,0,1,2.572-1.562,9.331,9.331,0,0,1,6.027,0,7.005,7.005,0,0,1,2.572,1.562,7.771,7.771,0,0,1,1.792,2.688,10.076,10.076,0,0,1,.676,3.875v.5a10.765,10.765,0,0,1-.676,4.025,7.8,7.8,0,0,1-1.792,2.75,7.039,7.039,0,0,1-2.572,1.587A9.01,9.01,0,0,1,161.588,5870.283Zm0-2.1a5.739,5.739,0,0,0,2.053-.375,4.565,4.565,0,0,0,1.74-1.187,5.97,5.97,0,0,0,1.208-2.1,9.388,9.388,0,0,0,.455-3.112v-.5a8.614,8.614,0,0,0-.455-2.963,5.754,5.754,0,0,0-1.208-2.024,4.679,4.679,0,0,0-1.74-1.163,5.8,5.8,0,0,0-4.105,0,4.683,4.683,0,0,0-1.741,1.163,5.753,5.753,0,0,0-1.208,2.024,8.615,8.615,0,0,0-.454,2.963v.5a9.389,9.389,0,0,0,.454,3.112,5.969,5.969,0,0,0,1.208,2.1,4.569,4.569,0,0,0,1.741,1.187A5.73,5.73,0,0,0,161.588,5868.183Z" fill="#c94a33" opacity="0.941"/>
      <path id="Контур_1469" data-name="Контур 1469" d="M170.94,5873.283v-5.3h1.949a10.047,10.047,0,0,0,.818-2.35,28.624,28.624,0,0,0,.52-3.012q.195-1.613.272-3.313t.078-3.275v-3.5H186.4v15.45h2.208v5.3h-2.338v-3.25h-12.99v3.25Zm4.547-5.3h8.469v-13.4h-6.989v1.95a53.268,53.268,0,0,1-.35,6.575A22.011,22.011,0,0,1,175.487,5867.983Z" fill="#c94a33" opacity="0.941"/>
      <path id="Контур_1470" data-name="Контур 1470" d="M190.684,5870.033l6.963-17.5h2.441l6.963,17.5H204.4l-1.741-4.35h-7.689l-1.741,4.35Zm5.092-6.4h6.079l-3.039-8.1Z" fill="#c94a33" opacity="0.941"/>
      <path id="Контур_1471" data-name="Контур 1471" d="M212.325,5870.033v-15.45h-6.313v-2.05h15.067v2.05h-6.313v15.45Z" fill="#c94a33" opacity="0.941"/>
      <path id="Контур_1472" data-name="Контур 1472" d="M224.2,5870.033v-17.5h2.442v7h3.793a11.511,11.511,0,0,1,3.117.375,6.107,6.107,0,0,1,2.2,1.075,4.309,4.309,0,0,1,1.286,1.662,5.7,5.7,0,0,1,0,4.276,4.3,4.3,0,0,1-1.286,1.662,6.107,6.107,0,0,1-2.2,1.075,11.511,11.511,0,0,1-3.117.375Zm2.442-2.05H230.3a6,6,0,0,0,3.65-.838,3.178,3.178,0,0,0,0-4.724,6,6,0,0,0-3.65-.838h-3.663Z" fill="#c94a33" opacity="0.941"/>
      <path id="Контур_1473" data-name="Контур 1473" d="M254.722,5870.283a9.005,9.005,0,0,1-3.014-.513,7.031,7.031,0,0,1-2.572-1.587,7.786,7.786,0,0,1-1.792-2.75,10.746,10.746,0,0,1-.676-4.025v-.5a10.057,10.057,0,0,1,.676-3.875,7.757,7.757,0,0,1,1.792-2.688,7,7,0,0,1,2.572-1.562,9.331,9.331,0,0,1,6.027,0,7,7,0,0,1,2.572,1.562,7.787,7.787,0,0,1,1.793,2.688,10.077,10.077,0,0,1,.675,3.875v.5a10.767,10.767,0,0,1-.675,4.025,7.816,7.816,0,0,1-1.793,2.75,7.031,7.031,0,0,1-2.572,1.587A9,9,0,0,1,254.722,5870.283Zm0-2.1a5.734,5.734,0,0,0,2.052-.375,4.565,4.565,0,0,0,1.74-1.187,5.971,5.971,0,0,0,1.209-2.1,9.416,9.416,0,0,0,.454-3.112v-.5a8.64,8.64,0,0,0-.454-2.963,5.755,5.755,0,0,0-1.209-2.024,4.679,4.679,0,0,0-1.74-1.163,5.8,5.8,0,0,0-4.1,0,4.679,4.679,0,0,0-1.74,1.163,5.739,5.739,0,0,0-1.208,2.024,8.591,8.591,0,0,0-.455,2.963v.5a9.362,9.362,0,0,0,.455,3.112,5.954,5.954,0,0,0,1.208,2.1,4.565,4.565,0,0,0,1.74,1.187A5.731,5.731,0,0,0,254.722,5868.183Z" fill="#c94a33" opacity="0.941"/>
      <path id="Контур_1474" data-name="Контур 1474" d="M266.932,5870.033v-17.5h11.82v2.025h-9.378v4.975h4.052a11.524,11.524,0,0,1,3.118.375,6.124,6.124,0,0,1,2.2,1.075,4.328,4.328,0,0,1,1.286,1.662,5.714,5.714,0,0,1,0,4.276,4.317,4.317,0,0,1-1.286,1.662,6.124,6.124,0,0,1-2.2,1.075,11.524,11.524,0,0,1-3.118.375Zm2.442-2.05H273.3a6,6,0,0,0,3.65-.838,3.178,3.178,0,0,0,0-4.724,6,6,0,0,0-3.65-.838h-3.922Z" fill="#c94a33" opacity="0.941"/>
      <path id="Контур_1475" data-name="Контур 1475" d="M284.207,5870.033v-17.5h6.235a10.864,10.864,0,0,1,3.118.4,6.294,6.294,0,0,1,2.2,1.113,4.37,4.37,0,0,1,1.286,1.7,5.838,5.838,0,0,1,0,4.324,4.363,4.363,0,0,1-1.286,1.7,6.269,6.269,0,0,1-2.2,1.113,10.828,10.828,0,0,1-3.118.4h-3.793v6.75Zm2.442-8.8h3.663a5.678,5.678,0,0,0,3.65-.9,3.321,3.321,0,0,0,0-4.85,5.678,5.678,0,0,0-3.65-.9h-3.663Z" fill="#c94a33" opacity="0.941"/>
      <path id="Контур_1476" data-name="Контур 1476" d="M297.067,5870.033l6.962-17.5h2.442l6.962,17.5h-2.649l-1.741-4.35h-7.69l-1.74,4.35Zm5.091-6.4h6.079l-3.039-8.1Z" fill="#c94a33" opacity="0.941"/>
      <path id="Контур_1477" data-name="Контур 1477" d="M336.684,5873.283v-3.25H316.551v-17.5h2.442v15.45h6.338v-15.45h2.442v15.45h6.339v-15.45h2.442v15.45h2.468v5.3Z" fill="#c94a33" opacity="0.941"/>
      <path id="Контур_1478" data-name="Контур 1478" d="M342.4,5870.033v-17.5H354.09v2.05h-9.249v5.425h8.469v2.05h-8.469v5.925h9.249v2.05Z" fill="#c94a33" opacity="0.941"/>
      <path id="Контур_1479" data-name="Контур 1479" d="M358.246,5870.033v-17.5h2.442v7.475h9.663v-7.475h2.443v17.5h-2.443v-7.975h-9.663v7.975Z" fill="#c94a33" opacity="0.941"/>
      <path id="Контур_1480" data-name="Контур 1480" d="M377.989,5870.033v-17.5h2.442v13.75l9.664-13.75h2.442v17.5H390.1v-13.75l-9.664,13.75Z" fill="#c94a33" opacity="0.941"/>
      <path id="Контур_1481" data-name="Контур 1481" d="M397.733,5870.033v-17.5h11.69v2.05h-9.248v5.425h8.469v2.05h-8.469v5.925h9.248v2.05Z" fill="#c94a33" opacity="0.941"/>
    </g>
    <path id="Контур_1482" data-name="Контур 1482" d="M60.784,5842.783v40h59v-40Zm37.639,17.561-8.143,7.714-8.3-7.818h0l-14.672-13.819h45.811l-14.7,13.923Zm-19.089,2.4-14.909,14.125V5848.7Zm2.653,2.5,8.3,7.819,8.143-7.715,14.647,13.8H67.315Zm19.089-2.4,15.067-14.274v28.466Z" fill="#c94a33"/>
  </g>
</svg>
