<svg width="80" height="80" viewBox="0 0 80 80" fill="none" xmlns="http://www.w3.org/2000/svg">
<path fill-rule="evenodd" clip-rule="evenodd" d="M5.12325 5.12328C6.2693 3.97722 7.82368 3.33337 9.44445 3.33337H70.5556C72.1763 3.33337 73.7307 3.97722 74.8768 5.12328C76.0228 6.26934 76.6667 7.82372 76.6667 9.44449V31.8646C76.6667 66.0442 47.6478 77.3561 41.9574 79.2479C40.6919 79.7011 39.3082 79.7011 38.0426 79.2479C32.3522 77.3561 3.33334 66.0442 3.33334 31.8646V9.44449C3.33334 7.82372 3.97719 6.26933 5.12325 5.12328ZM70.5556 9.44449L9.44445 9.44449L9.44445 31.8646C9.44445 61.756 34.7282 71.7127 40 73.4586C45.2718 71.7127 70.5556 61.756 70.5556 31.8646V9.44449Z" fill="#F54E00"/>
<path d="M51.1223 20H28.8778C25.805 20 23.3333 22.3908 23.3333 25.3631V46.88C23.3333 49.8523 25.805 52.243 28.8778 52.243H51.1223C54.1951 52.243 56.6667 49.8523 56.6667 46.88V25.3631C56.6667 22.3908 54.1951 20 51.1223 20ZM54.9299 46.2984C54.8631 46.363 54.7963 46.363 54.7295 46.363C50.4543 43.843 45.3775 42.4215 40.0334 42.4215C34.6894 42.4215 29.6126 43.843 25.2706 46.363C25.2038 46.4276 25.0702 46.363 25.0702 46.2984C25.0034 46.2338 25.0034 46.1046 25.137 46.1046C29.0114 43.1969 32.4182 39.5138 34.9566 35.12C37.5618 30.7908 39.165 26.1385 39.833 21.4215C39.833 21.3569 39.8999 21.2923 40.0334 21.2923C40.1002 21.2923 40.167 21.3569 40.2338 21.4215C40.9018 26.1385 42.505 30.7908 45.1102 35.12C47.7155 39.4492 51.0555 43.1323 54.9967 46.04C54.9967 46.1046 54.9967 46.2338 54.9299 46.2984Z" fill="#F54E00"/>
</svg>
