<svg xmlns="http://www.w3.org/2000/svg" width="193.6" height="60.616" viewBox="0 0 193.6 60.616">
  <g id="Сгруппировать_153" data-name="Сгруппировать 153" transform="translate(-972.196 -5186.84)">
    <rect id="Прямоугольник_301" data-name="Прямоугольник 301" width="123.494" height="1.152" transform="translate(972.196 5237.118)" fill="#828282"/>
    <path id="Контур_1452" data-name="Контур 1452" d="M1001.349,5240.852a2.236,2.236,0,0,0-2.391,2.372,2.195,2.195,0,0,0,2.318,2.308,2.248,2.248,0,0,0,2.363-2.39,2.178,2.178,0,0,0-2.29-2.29Zm-.037.989c.632,0,.889.678.889,1.347,0,.806-.348,1.346-.889,1.346-.6,0-.916-.577-.916-1.346,0-.66.248-1.347.916-1.347Zm6.921,2.455a2.157,2.157,0,0,1-.8.137,1.255,1.255,0,0,1-.027-2.509,1.9,1.9,0,0,1,.778.137l.22-1.035a3.229,3.229,0,0,0-1.062-.174,2.336,2.336,0,0,0-2.565,2.381,2.172,2.172,0,0,0,2.372,2.29,3.39,3.39,0,0,0,1.246-.2l-.165-1.026Zm1.462-3.343v4.479h1.392v-1.777h1.411v1.777h1.4v-4.479h-1.4v1.621h-1.411v-1.621Zm7.983-.1a2.236,2.236,0,0,0-2.391,2.372,2.195,2.195,0,0,0,2.318,2.308,2.247,2.247,0,0,0,2.363-2.39,2.178,2.178,0,0,0-2.29-2.29Zm-.037.989c.633,0,.889.678.889,1.347,0,.806-.348,1.346-.889,1.346-.595,0-.915-.577-.915-1.346,0-.66.247-1.347.915-1.347Zm3.715,3.572a14.55,14.55,0,0,0,1.567.083c.916,0,2.647-.11,2.647-1.383,0-.6-.44-.98-1.108-1.09V5243a1.023,1.023,0,0,0,.916-.97c0-1.063-1.457-1.145-2.217-1.145a16.09,16.09,0,0,0-1.8.109v4.415Zm1.374-3.636a3.652,3.652,0,0,1,.477-.037c.558,0,.8.184.8.477,0,.339-.358.485-.916.485h-.358v-.925Zm-.009,1.731h.4c.651,0,1.017.183,1.017.568,0,.44-.476.577-.953.577a3.522,3.522,0,0,1-.467-.018v-1.127Zm8.075,1.924a6.929,6.929,0,0,1-.064-1.09v-1.557a1.742,1.742,0,0,0-1.969-1.933,3.7,3.7,0,0,0-1.741.394l.257.9a2.517,2.517,0,0,1,1.236-.338c.687,0,.816.338.816.577v.064c-1.585-.009-2.629.549-2.629,1.713a1.372,1.372,0,0,0,1.447,1.373,1.614,1.614,0,0,0,1.282-.549h.028l.082.449Zm-1.42-1.631a1.016,1.016,0,0,1-.027.238.761.761,0,0,1-.724.513.5.5,0,0,1-.549-.531c0-.54.568-.714,1.3-.705v.485Zm2.983-2.848v4.479h1.392v-1.777h1.411v1.777h1.4v-4.479h-1.4v1.621h-1.411v-1.621Zm9,4.46a14.527,14.527,0,0,0,1.566.083c.916,0,2.647-.11,2.647-1.383,0-.6-.44-.98-1.108-1.09V5243a1.022,1.022,0,0,0,.916-.97c0-1.063-1.457-1.145-2.217-1.145a16.067,16.067,0,0,0-1.8.109v4.415Zm1.374-3.636a3.634,3.634,0,0,1,.476-.037c.559,0,.8.184.8.477,0,.339-.357.485-.916.485h-.357v-.925Zm-.01,1.731h.4c.651,0,1.017.183,1.017.568,0,.44-.476.577-.952.577a3.529,3.529,0,0,1-.468-.018v-1.127Zm9,1.924h1.347v-5.954h-1.154l-1.576.733.229,1.044,1.136-.54h.018v4.717Zm4.283.082a4.915,4.915,0,0,0,.632,0,3.52,3.52,0,0,0,2.272-.833,3.558,3.558,0,0,0,1.044-2.739,2.267,2.267,0,0,0-2.253-2.565,2.164,2.164,0,0,0-2.244,2.144,1.793,1.793,0,0,0,1.859,1.859,1.572,1.572,0,0,0,1.191-.431l.027.01a1.853,1.853,0,0,1-.751,1.1,2.385,2.385,0,0,1-1.172.366,3.33,3.33,0,0,1-.6,0v1.09Zm1.658-5.12c.632,0,.87.623.87,1.255a.655.655,0,0,1-.073.348.877.877,0,0,1-.769.394.849.849,0,0,1-.843-.953c-.009-.623.339-1.044.815-1.044Zm3.587-.916v1.145h2.729v.018l-2.454,4.791h1.474l2.455-5.075v-.879Zm9.531,0h-3.279l-.394,3.123a5.214,5.214,0,0,1,.806-.055c1.191,0,1.676.376,1.676.99,0,.632-.613.906-1.19.906a3.412,3.412,0,0,1-1.347-.293l-.247,1.045a3.781,3.781,0,0,0,1.658.338,2.27,2.27,0,0,0,2.555-2.088,1.693,1.693,0,0,0-.723-1.493,2.726,2.726,0,0,0-1.567-.43,2.609,2.609,0,0,0-.384.018l.128-.916h2.308v-1.145Zm4.974,1.475v4.479h1.392v-3.4h1.741v-1.081Zm6.362-.1a2.236,2.236,0,0,0-2.391,2.372,2.195,2.195,0,0,0,2.318,2.308,2.247,2.247,0,0,0,2.363-2.39,2.178,2.178,0,0,0-2.29-2.29Zm-.037.989c.632,0,.889.678.889,1.347,0,.806-.348,1.346-.889,1.346-.595,0-.916-.577-.916-1.346,0-.66.248-1.347.916-1.347Zm4.183-.888v1.1a5.612,5.612,0,0,1-.2,1.465,3.507,3.507,0,0,1-.449.935l-.412.027.037,2.4h1.053l.055-1.447h2.835l.046,1.447h1.044l.064-2.409-.5-.018v-3.5Zm1.209,1.016h1.007v2.446H1087a2.875,2.875,0,0,0,.312-.76,4.726,4.726,0,0,0,.165-1.163v-.523Zm3.568-1.016,1.64,4.094a.505.505,0,0,1,.064.229.367.367,0,0,1-.074.2,1.6,1.6,0,0,1-.577.558,1.723,1.723,0,0,1-.6.238l.293,1.182a2.558,2.558,0,0,0,1.346-.614,6.861,6.861,0,0,0,1.576-2.94l1.044-2.949h-1.493l-.55,2.2c-.064.256-.137.6-.2.834h-.027c-.055-.239-.147-.568-.22-.834l-.669-2.2Z" fill="#828282"/>
    <g id="Сгруппировать_152" data-name="Сгруппировать 152">
      <path id="Контур_1453" data-name="Контур 1453" d="M975.149,5229h1.328c.757,0,2.086.24,2.086,1.236,0,1.033-1.2,1.367-2.2,1.367a6.806,6.806,0,0,1-3.138-.851l-1.017,2.457a7.854,7.854,0,0,0,4.192,1.165c2.6,0,5.556-1.038,5.556-3.971a2.741,2.741,0,0,0-2.271-2.695l.019-.035a3.247,3.247,0,0,0,2.768-2.991c0-2.455-2.215-3.192-4.226-3.192a8.43,8.43,0,0,0-4.208,1.068l.664,2.344a7.2,7.2,0,0,1,2.879-.756c.757,0,1.439.314,1.439,1.07.056,1.089-1.107,1.329-2.232,1.329h-1.181Z" fill="#828282"/>
      <path id="Контур_1454" data-name="Контур 1454" d="M992.352,5234.145a23.27,23.27,0,0,1,.35-4.1l.887-4.669a11.7,11.7,0,0,0-3.377-.534c-4.892,0-6.995,3.044-6.995,6.144a3.078,3.078,0,0,0,3.045,3.381,3.425,3.425,0,0,0,3.082-1.83h.037c-.019.535-.056,1.071-.092,1.6Zm-2.732-5.26h0c-.4,2.326-1.31,2.86-1.918,2.86-.537,0-1-.424-1-1.327,0-1.422,1.071-3.082,2.585-3.082a3.541,3.541,0,0,1,.591.054Z" fill="#828282"/>
      <path id="Контур_1455" data-name="Контур 1455" d="M997.19,5234.145l.683-3.6c.369-1.956,1.2-3.083,2.086-3.083.591,0,.757.388.757.961a5.976,5.976,0,0,1-.094.994l-.885,4.726h3.285l1-5.242a12.089,12.089,0,0,0,.13-1.456,2.309,2.309,0,0,0-2.511-2.6,3.936,3.936,0,0,0-3.3,1.715H998.3l.165-1.5h-2.915c-.13.813-.3,1.866-.535,3.157l-1.109,5.924Z" fill="#828282"/>
      <path id="Контур_1456" data-name="Контур 1456" d="M1015.617,5231.175a6.982,6.982,0,0,1-2.566.424c-2.213,0-3.635-1.163-3.635-3.212a3.9,3.9,0,0,1,1.754-3.433,5.127,5.127,0,0,1,2.823-.7,7.851,7.851,0,0,1,2.529.4l.848-2.619a7.9,7.9,0,0,0-3.156-.553,10,10,0,0,0-4.724,1.015,6.686,6.686,0,0,0-3.673,6.162c0,4.025,2.971,5.707,6.331,5.707a9.715,9.715,0,0,0,3.82-.613Z" fill="#828282"/>
      <path id="Контур_1457" data-name="Контур 1457" d="M1018.418,5225.064l-.96,5.076a8.877,8.877,0,0,0-.166,1.625c0,1.659.793,2.6,2.473,2.6a4.238,4.238,0,0,0,3.34-1.682h.037l-.165,1.457h2.916c.128-.813.3-1.863.535-3.156l1.107-5.925h-3.285l-.683,3.6c-.369,1.919-1.181,3.046-2.1,3.046-.571,0-.756-.444-.756-.887a6.976,6.976,0,0,1,.111-1.032l.885-4.726Z" fill="#828282"/>
      <path id="Контур_1458" data-name="Контур 1458" d="M1038.936,5220.765a8.8,8.8,0,0,1-1.9.224c-2.473.109-4.429.255-6.386,2.12a8.768,8.768,0,0,0-2.379,6.551c0,3.1,1.7,4.71,4.17,4.71a5.529,5.529,0,0,0,5.721-5.633,3.445,3.445,0,0,0-3.579-3.673,3.9,3.9,0,0,0-3.175,1.662h-.111a4.432,4.432,0,0,1,1.4-2.086,6.5,6.5,0,0,1,4.023-.976,7.3,7.3,0,0,0,1.7-.241l.517-2.658ZM1032.773,5232h0c-.887,0-1.256-.866-1.256-1.827a3.371,3.371,0,0,1,.923-2.4,1.6,1.6,0,0,1,1.07-.462c.868,0,1.218.905,1.218,1.643,0,1.181-.48,3.044-1.937,3.044Z" fill="#828282"/>
      <g id="Сгруппировать_151" data-name="Сгруппировать 151">
        <path id="Контур_1459" data-name="Контур 1459" d="M1042.078,5221.706l-2.344,12.439h3.286l.922-4.927h4.633l-.942,4.927h3.3l2.345-12.439h-3.3l-.866,4.6H1044.5l.868-4.6Z" fill="#828282"/>
        <path id="Контур_1460" data-name="Контур 1460" d="M1056.349,5221.706l-2.361,12.439h4.095l2.474-3.6a50.919,50.919,0,0,0,2.879-4.595h.036c-.5,1.937-.719,3.248-1.051,4.944l-.628,3.249h3.119l2.363-12.439h-3.728l-2.75,4.209c-.961,1.458-2.086,3.044-3.138,4.759h-.055c.444-1.881.848-3.726,1.217-5.61l.647-3.358Z" fill="#828282"/>
        <path id="Контур_1461" data-name="Контур 1461" d="M1070.343,5221.706l-2.362,12.439h4.1l2.473-3.6a51.138,51.138,0,0,0,2.879-4.595h.037c-.5,1.937-.721,3.248-1.053,4.944l-.627,3.249h3.118l2.363-12.439h-3.727l-2.75,4.209c-.961,1.458-2.085,3.044-3.139,4.759h-.054c.443-1.881.848-3.726,1.217-5.61l.647-3.358Z" fill="#828282"/>
        <path id="Контур_1462" data-name="Контур 1462" d="M1084.318,5221.706l-2.343,12.439h3.285l1.807-9.633h4.689l.535-2.806Z" fill="#828282"/>
        <path id="Контур_1463" data-name="Контур 1463" d="M1094.639,5221.706l-2.344,12.439h3.285l1.809-9.633h4.687l.535-2.806Z" fill="#828282"/>
      </g>
    </g>
    <path id="Контур_1464" data-name="Контур 1464" d="M1147.96,5215.929l1.4,1.132a17.481,17.481,0,0,1-11.35,19.657,13.214,13.214,0,0,1-17.5-10.107,17.482,17.482,0,0,1,11.349-19.657l1.68.645a13,13,0,0,0-8.82,15.277,11.324,11.324,0,0,0,14.425,8.329A13,13,0,0,0,1147.96,5215.929Z" fill="#828282"/>
    <path id="Контур_1465" data-name="Контур 1465" d="M1114.966,5225.72l-2.583-2.077c-3.248-14.947,5.934-30.848,20.5-35.51s29.013,3.678,32.258,18.626-5.934,30.848-20.5,35.509l-3.091-1.2a23.146,23.146,0,0,0,15.933-27.595,21.152,21.152,0,0,0-26.586-15.349A23.145,23.145,0,0,0,1114.966,5225.72Z" fill="#828282"/>
    <path id="Контур_1466" data-name="Контур 1466" d="M1141.059,5211.223a4.793,4.793,0,1,1-6.548,1.755A4.792,4.792,0,0,1,1141.059,5211.223Z" fill="#828282"/>
  </g>
</svg>
