<svg xmlns="http://www.w3.org/2000/svg" width="221.365" height="30.851" viewBox="0 0 221.365 30.851">
  <g id="Сгруппировать_50" data-name="Сгруппировать 50" transform="translate(-972.056 -5384.431)">
    <path id="Контур_121" data-name="Контур 121" d="M997.726,5411.367c-.21.187-.422.374-.642.55C997.3,5411.741,997.515,5411.555,997.726,5411.367Z" fill="#828282"/>
    <path id="Контур_122" data-name="Контур 122" d="M986.032,5415.209c-.116-.011-.231-.027-.346-.04C985.8,5415.182,985.916,5415.2,986.032,5415.209Z" fill="#6e6e6e"/>
    <path id="Контур_123" data-name="Контур 123" d="M987.482,5415.282l.046,0-.053,0Z" fill="#6e6e6e"/>
    <path id="Контур_124" data-name="Контур 124" d="M990.8,5414.915c-.175.039-.354.071-.531.1C990.444,5414.986,990.621,5414.954,990.8,5414.915Z" fill="#6e6e6e"/>
    <path id="Контур_125" data-name="Контур 125" d="M989.37,5415.155c-.163.02-.326.041-.491.056C989.044,5415.2,989.207,5415.175,989.37,5415.155Z" fill="#6e6e6e"/>
    <path id="Контур_126" data-name="Контур 126" d="M984.555,5415c-.1-.018-.2-.036-.3-.056C984.357,5414.96,984.456,5414.978,984.555,5415Z" fill="#6e6e6e"/>
    <path id="Контур_127" data-name="Контур 127" d="M992.411,5414.463c-.229.078-.46.149-.693.216C991.951,5414.612,992.182,5414.541,992.411,5414.463Z" fill="#6e6e6e"/>
    <path id="Контур_128" data-name="Контур 128" d="M982.451,5402.75c1.92,0,3.389-1.777,5.113-1.777,2.041,0,3.163,1.777,5.068,1.777,1.994,0,3.344-1.853,5.106-1.853,1.616,0,3.914,1.885,4.889,1.851a15.426,15.426,0,1,0-30.291,0c1.581-.019,3.4-1.77,4.873-1.77C979.634,5400.973,980.488,5402.75,982.451,5402.75Z" fill="#828282"/>
    <path id="Контур_129" data-name="Контур 129" d="M981.518,5414.085l-.114-.05Z" fill="#6e6e6e"/>
    <path id="Контур_130" data-name="Контур 130" d="M998.86,5410.245a15.206,15.206,0,0,0,1.218-1.5h0A15.3,15.3,0,0,1,998.86,5410.245Z" fill="#828282"/>
    <path id="Контур_131" data-name="Контур 131" d="M980.19,5413.449l-.1-.053Z" fill="#6e6e6e"/>
    <path id="Контур_132" data-name="Контур 132" d="M998.649,5410.478c-.2.209-.4.411-.614.608Q998.35,5410.791,998.649,5410.478Z" fill="#828282"/>
    <path id="Контур_133" data-name="Контур 133" d="M996.82,5412.114q-.6.461-1.252.861Q996.216,5412.573,996.82,5412.114Z" fill="#828282"/>
    <path id="Контур_134" data-name="Контур 134" d="M995.092,5413.264c-.207.117-.418.228-.63.336C994.674,5413.492,994.885,5413.381,995.092,5413.264Z" fill="#6e6e6e"/>
    <path id="Контур_135" data-name="Контур 135" d="M993.885,5413.877c-.2.093-.4.186-.61.27C993.482,5414.063,993.683,5413.97,993.885,5413.877Z" fill="#6e6e6e"/>
    <path id="Контур_136" data-name="Контур 136" d="M973.7,5406.821c-.027-.054-.052-.109-.078-.163C973.649,5406.712,973.674,5406.767,973.7,5406.821Z" fill="#828282"/>
    <path id="Контур_137" data-name="Контур 137" d="M974.281,5407.86c-.033-.055-.066-.108-.1-.163C974.215,5407.752,974.248,5407.805,974.281,5407.86Z" fill="#828282"/>
    <path id="Контур_138" data-name="Контур 138" d="M997.708,5407.72c-.814,0-1.72,1.085-2.621,1.085-.8,0-1.754-1.085-2.53-1.085-.752,0-1.714,1.085-2.53,1.085s-1.844-1.085-2.561-1.085c-.772,0-1.7,1.085-2.47,1.085-.751,0-1.707-1.085-2.455-1.085-.729,0-1.748,1.085-2.56,1.085-.83,0-1.851-1.085-2.591-1.085-.668,0-1.821,1.234-2.483,1.087a15.491,15.491,0,0,0,5.182,4.589l.1.053q.593.319,1.214.586l.114.05a15.415,15.415,0,0,0,2.741.855c.1.02.2.038.3.056q.559.108,1.131.173c.115.013.23.029.346.04.473.043.95.073,1.435.073h.008l.053,0c.456,0,.906-.028,1.351-.069.165-.015.328-.036.491-.056.3-.037.6-.082.9-.137.177-.032.356-.064.531-.1.311-.068.617-.15.921-.236.233-.067.464-.138.693-.216.291-.1.581-.2.864-.316.207-.084.408-.177.61-.27s.387-.181.577-.277c.212-.108.423-.219.63-.336.162-.093.318-.192.476-.289q.648-.4,1.252-.861c.087-.066.178-.129.264-.2.22-.176.432-.363.642-.55.1-.093.207-.185.309-.281.209-.2.415-.4.614-.608.072-.076.141-.155.211-.233a15.3,15.3,0,0,0,1.215-1.5C999.436,5408.827,998.481,5407.72,997.708,5407.72Z" fill="#828282"/>
    <g id="Сгруппировать_49" data-name="Сгруппировать 49">
      <path id="Контур_139" data-name="Контур 139" d="M1010.534,5409.526v-16.954c2.422-.024,4.82,0,7.242,0a5.853,5.853,0,0,1,6.03,6.176,5.768,5.768,0,0,1-6.03,5.983h-3.609v4.795Zm7.242-7.9a2.724,2.724,0,0,0,2.567-2.979,2.657,2.657,0,0,0-2.567-2.906c-1.236-.024-2.447,0-3.682,0v5.885Z" fill="#828282"/>
      <path id="Контур_140" data-name="Контур 140" d="M1034.052,5409.841a8.756,8.756,0,1,1,8.695-8.768A8.307,8.307,0,0,1,1034.052,5409.841Zm.048-3.318c2.64,0,5.038-1.744,5.038-5.45,0-3.608-2.374-5.4-5.013-5.4-2.665,0-5.038,1.817-5.038,5.4C1029.087,5404.779,1031.388,5406.523,1034.1,5406.523Z" fill="#828282"/>
      <path id="Контур_141" data-name="Контур 141" d="M1053.452,5392.427c3.415,0,7.048,1.841,7.823,6.031h-3.511a4.225,4.225,0,0,0-4.312-2.761c-3,0-5.013,2.179-5.013,5.4a5.019,5.019,0,0,0,4.989,5.328,4.22,4.22,0,0,0,4.408-3.052h3.488c-.727,4.481-4.335,6.346-7.872,6.346-4.456,0-8.67-3-8.67-8.622A8.3,8.3,0,0,1,1053.452,5392.427Z" fill="#828282"/>
      <path id="Контур_142" data-name="Контур 142" d="M1067.766,5395.866v13.684h-3.608V5392.6h10.317v3.269Z" fill="#828282"/>
      <path id="Контур_143" data-name="Контур 143" d="M1077.915,5409.6h-1.09v-17h3.633v9.615l9.518-9.688h1.138v17.026h-3.609v-9.688Z" fill="#828282"/>
      <path id="Контур_144" data-name="Контур 144" d="M1094.142,5406.474c1.453-.024,1.744-.75,1.938-2.373l1.332-11.5h11.044v13.877h1.817v5.474h-3.246v-2.4h-10.051v2.4h-3.415v-5.474Zm5.522-2.228a3.244,3.244,0,0,1-1.138,2.3h6.37v-10.826h-4.335Z" fill="#828282"/>
      <path id="Контур_145" data-name="Контур 145" d="M1113.18,5409.526v-16.954c2.422-.024,4.819,0,7.241,0a5.853,5.853,0,0,1,6.031,6.176,5.769,5.769,0,0,1-6.031,5.983h-3.608v4.795Zm7.241-7.9a2.725,2.725,0,0,0,2.568-2.979,2.657,2.657,0,0,0-2.568-2.906c-1.235-.024-2.446,0-3.681,0v5.885Z" fill="#828282"/>
      <path id="Контур_146" data-name="Контур 146" d="M1136.7,5409.841a8.756,8.756,0,1,1,8.695-8.768A8.308,8.308,0,0,1,1136.7,5409.841Zm.048-3.318c2.64,0,5.038-1.744,5.038-5.45,0-3.608-2.373-5.4-5.013-5.4-2.664,0-5.038,1.817-5.038,5.4C1131.732,5404.779,1134.033,5406.523,1136.745,5406.523Z" fill="#828282"/>
      <path id="Контур_147" data-name="Контур 147" d="M1163.315,5392.548h1.308v17h-3.633v-9.179l-4.263,5.328h-.46l-4.262-5.328v9.179h-3.633v-17h1.332l6.805,8.065Z" fill="#828282"/>
      <path id="Контур_148" data-name="Контур 148" d="M1178.937,5395.769H1172.2v3.439h6.3v3.173h-6.3v3.875h6.926v3.294h-10.584V5392.6h10.39Z" fill="#828282"/>
      <path id="Контур_149" data-name="Контур 149" d="M1180.875,5395.745V5392.6h12.546v3.148h-4.505v13.8H1185.4v-13.8Z" fill="#828282"/>
    </g>
  </g>
</svg>
