<svg xmlns="http://www.w3.org/2000/svg" width="175.499" height="47.026" viewBox="0 0 175.499 47.026">
  <g id="Сгруппировать_148" data-name="Сгруппировать 148" transform="translate(-364.864 -5078.908)">
    <g id="Сгруппировать_146" data-name="Сгруппировать 146">
      <circle id="Эллипс_2" data-name="Эллипс 2" cx="5.644" cy="5.644" r="5.644" transform="translate(382.733 5078.908)" fill="#828282"/>
      <path id="Контур_1425" data-name="Контур 1425" d="M411.719,5099.458l0,0a23.035,23.035,0,0,0-7.4-14.429,19.967,19.967,0,0,1-2.158,2.5,20.254,20.254,0,0,1,6.278,11.935h0c.06.418.109.841.143,1.267H392.757v-3.542a23.848,23.848,0,0,0,9.78-4.183,17.171,17.171,0,0,0-2.9-3.334,19.755,19.755,0,0,1-22.525,0,17.171,17.171,0,0,0-2.9,3.334,23.85,23.85,0,0,0,9.779,4.183v3.542H368.172q.051-.639.143-1.267h0a20.248,20.248,0,0,1,6.278-11.935,19.8,19.8,0,0,1-2.158-2.5,23.041,23.041,0,0,0-7.4,14.429v0a23.341,23.341,0,0,0,6.8,19.693A20.383,20.383,0,0,1,384,5111.066v11.1a20.188,20.188,0,0,1-7.527-3.4,17.219,17.219,0,0,0-2.121,2.534,23.171,23.171,0,0,0,9.677,4.224v.009a23.189,23.189,0,0,0,3.855.4h.016c.16,0,.32,0,.48,0s.32,0,.48,0h.017a23.19,23.19,0,0,0,3.855-.4v-.009a23.183,23.183,0,0,0,9.677-4.224,17.219,17.219,0,0,0-2.121-2.534,20.185,20.185,0,0,1-7.528,3.4v-11.1a20.382,20.382,0,0,1,12.158,8.085A23.344,23.344,0,0,0,411.719,5099.458ZM384,5107.707a23.382,23.382,0,0,0-12.155,6.375,20.154,20.154,0,0,1-3.67-10.069H384Zm20.916,6.375a23.385,23.385,0,0,0-12.156-6.375v-3.694h15.825A20.143,20.143,0,0,1,404.913,5114.082Z" fill="#828282"/>
    </g>
    <g id="Сгруппировать_147" data-name="Сгруппировать 147">
      <path id="Контур_1426" data-name="Контур 1426" d="M430.254,5107.315a7.123,7.123,0,0,1-2.178-.335,5.707,5.707,0,0,1-1.852-.979,4.845,4.845,0,0,1-1.287-1.587,4.664,4.664,0,0,1-.485-2.161,4.607,4.607,0,0,1,.485-2.151,4.873,4.873,0,0,1,1.287-1.578,5.679,5.679,0,0,1,1.852-.979,7.529,7.529,0,0,1,2.178-.353v-1.41h1.658v1.41a7.441,7.441,0,0,1,2.169.353,5.8,5.8,0,0,1,1.851.979,4.823,4.823,0,0,1,1.3,1.578,4.6,4.6,0,0,1,.486,2.151,4.652,4.652,0,0,1-.486,2.161,4.8,4.8,0,0,1-1.3,1.587,5.828,5.828,0,0,1-1.851.979,7.042,7.042,0,0,1-2.169.335v1.481h-1.658Zm0-8.712a5.07,5.07,0,0,0-1.578.238,3.626,3.626,0,0,0-1.27.705,3.4,3.4,0,0,0-.855,1.147,3.988,3.988,0,0,0,0,3.121,3.385,3.385,0,0,0,.855,1.146,3.613,3.613,0,0,0,1.27.706,5.055,5.055,0,0,0,1.578.238Zm1.658,7.3a5.06,5.06,0,0,0,1.578-.238,3.622,3.622,0,0,0,1.27-.706,3.411,3.411,0,0,0,.855-1.146,4,4,0,0,0,0-3.121,3.429,3.429,0,0,0-.855-1.147,3.635,3.635,0,0,0-1.27-.705,5.074,5.074,0,0,0-1.578-.238Z" fill="#828282"/>
      <path id="Контур_1427" data-name="Контур 1427" d="M447.395,5096.575v1.482h-5.467V5108.8h-1.71v-12.221Z" fill="#828282"/>
      <path id="Контур_1428" data-name="Контур 1428" d="M450.9,5098.039v3.1h1.516a11.338,11.338,0,0,1,2.3.211,4.884,4.884,0,0,1,1.719.679,3.105,3.105,0,0,1,1.076,1.2,3.934,3.934,0,0,1,.37,1.79,3.316,3.316,0,0,1-1.411,2.918,6.928,6.928,0,0,1-3.985.979q-.371,0-.8-.018c-.289-.011-.577-.029-.865-.052s-.573-.053-.855-.088a6.688,6.688,0,0,1-.776-.141v-12.045h7.548v1.464Zm1.728,9.381a7.968,7.968,0,0,0,1.314-.1,3.293,3.293,0,0,0,1.1-.38,2.107,2.107,0,0,0,.758-.732,2.186,2.186,0,0,0,.282-1.163,2.562,2.562,0,0,0-.255-1.217,1.93,1.93,0,0,0-.732-.758,3.363,3.363,0,0,0-1.173-.4,9.815,9.815,0,0,0-1.578-.115H450.9v4.815c.129.011.282.023.458.035.153.012.335.017.547.017Z" fill="#828282"/>
      <path id="Контур_1429" data-name="Контур 1429" d="M465.347,5105.057q-.354.812-.732,1.526a5.319,5.319,0,0,1-.9,1.243,3.681,3.681,0,0,1-1.252.829,4.794,4.794,0,0,1-1.807.3,3.863,3.863,0,0,1-.441-.026c-.153-.017-.3-.041-.441-.07a3.581,3.581,0,0,1-.37-.1.894.894,0,0,1-.23-.106l.3-1.446a5.621,5.621,0,0,0,.556.176,2.577,2.577,0,0,0,.679.088,2.931,2.931,0,0,0,.926-.132,2.5,2.5,0,0,0,.714-.371,2.67,2.67,0,0,0,.564-.581,7.167,7.167,0,0,0,.476-.768q-.775-1.251-1.463-2.494t-1.27-2.408q-.582-1.165-1.058-2.213t-.847-1.931h1.94q.582,1.534,1.49,3.421t2.019,3.95q.706-1.6,1.349-3.535t1.209-3.836h1.851q-.406,1.27-.811,2.39t-.811,2.151q-.406,1.032-.812,2.011T465.347,5105.057Z" fill="#828282"/>
      <path id="Контур_1430" data-name="Контур 1430" d="M473.352,5102.694l2.752-3.9,1.146.617-1.958,3.28,1.958,3.28-1.146.617Zm3.669,0,2.75-3.9,1.147.617-1.958,3.28,1.958,3.28-1.147.617Z" fill="#828282"/>
      <path id="Контур_1431" data-name="Контур 1431" d="M486.437,5108.9c-.247,0-.514,0-.8-.017s-.576-.03-.864-.053-.573-.053-.856-.088a6.667,6.667,0,0,1-.775-.141v-11.851a6.88,6.88,0,0,1,.775-.141q.424-.052.856-.088t.855-.053q.423-.017.794-.017a11.745,11.745,0,0,1,1.984.158,5.007,5.007,0,0,1,1.6.538,2.909,2.909,0,0,1,1.067,1,2.8,2.8,0,0,1,.388,1.517,2.7,2.7,0,0,1-.476,1.649,2.866,2.866,0,0,1-1.27.961,3.686,3.686,0,0,1,1.711,1,2.755,2.755,0,0,1,.635,1.94,3.129,3.129,0,0,1-1.349,2.76A7.714,7.714,0,0,1,486.437,5108.9Zm-1.605-7.177h1.8a7.783,7.783,0,0,0,1.2-.088,2.946,2.946,0,0,0,.979-.317,1.8,1.8,0,0,0,.653-.6,1.7,1.7,0,0,0,.238-.935,1.546,1.546,0,0,0-.247-.89,1.786,1.786,0,0,0-.679-.582,3.693,3.693,0,0,0-1.014-.326,6.879,6.879,0,0,0-1.235-.106c-.435,0-.775.006-1.022.018s-.471.029-.671.052Zm0,1.376v4.3c.13.012.283.023.459.035.153.012.332.021.538.027s.443.008.714.008a10.12,10.12,0,0,0,1.437-.1,4.026,4.026,0,0,0,1.191-.344,2.083,2.083,0,0,0,.82-.687,1.9,1.9,0,0,0,.308-1.111,2.064,2.064,0,0,0-.229-1.014,1.7,1.7,0,0,0-.661-.662,3.177,3.177,0,0,0-1.032-.352,7.679,7.679,0,0,0-1.34-.106Z" fill="#828282"/>
      <path id="Контур_1432" data-name="Контур 1432" d="M494.478,5108.8v-12.221h1.676v9.046q.564-.933,1.384-2.133t1.746-2.442q.926-1.244,1.869-2.417t1.772-2.054h1.358V5108.8h-1.675v-9.541q-.494.565-1.076,1.306t-1.2,1.578q-.617.836-1.243,1.737t-1.208,1.772q-.582.873-1.085,1.684t-.89,1.464Z" fill="#828282"/>
      <path id="Контур_1433" data-name="Контур 1433" d="M512.8,5107.1q-.177-.423-.468-1.076t-.626-1.411q-.334-.758-.714-1.56t-.714-1.517q-.336-.714-.626-1.278c-.194-.377-.35-.664-.468-.865q-.193,2.082-.317,4.506t-.212,4.894h-1.675q.071-1.587.159-3.2t.2-3.174q.114-1.562.247-3.042t.291-2.8h1.5q.477.775,1.023,1.834t1.094,2.213q.546,1.155,1.058,2.311l.934,2.107q.425-.953.935-2.107t1.058-2.311q.546-1.155,1.094-2.213t1.022-1.834h1.5q.6,5.908.9,12.221H518.32q-.089-2.469-.211-4.894t-.318-4.506c-.117.2-.273.488-.467.865s-.4.8-.626,1.278l-.714,1.517q-.379.8-.715,1.56t-.626,1.411q-.291.653-.467,1.076Z" fill="#828282"/>
      <path id="Контур_1434" data-name="Контур 1434" d="M527.931,5109.06a6.277,6.277,0,0,1-2.346-.423,5,5,0,0,1-1.816-1.234,5.569,5.569,0,0,1-1.173-2,8.271,8.271,0,0,1-.414-2.724,7.424,7.424,0,0,1,.467-2.725,5.909,5.909,0,0,1,1.261-2,5.34,5.34,0,0,1,1.852-1.234,6.024,6.024,0,0,1,2.257-.423,8,8,0,0,1,1.367.106,8.146,8.146,0,0,1,1.058.247,5.292,5.292,0,0,1,.732.281,4.394,4.394,0,0,1,.388.212l-.494,1.411a2.785,2.785,0,0,0-.459-.229c-.2-.082-.426-.165-.679-.247a6.147,6.147,0,0,0-.828-.2,5.193,5.193,0,0,0-.909-.079,4.363,4.363,0,0,0-1.745.335,3.612,3.612,0,0,0-1.323.97,4.364,4.364,0,0,0-.838,1.543,6.655,6.655,0,0,0-.291,2.037,7.259,7.259,0,0,0,.256,1.993,4.368,4.368,0,0,0,.767,1.543,3.449,3.449,0,0,0,1.279,1,4.25,4.25,0,0,0,1.79.353,6.544,6.544,0,0,0,1.957-.247,8.764,8.764,0,0,0,1.164-.441l.441,1.41a2.516,2.516,0,0,1-.441.221,6.042,6.042,0,0,1-.794.256,10.138,10.138,0,0,1-2.486.3Z" fill="#828282"/>
      <path id="Контур_1435" data-name="Контур 1435" d="M533.944,5106.591l-1.146-.617,1.957-3.28-1.957-3.28,1.146-.617,2.751,3.9Zm3.668,0-1.146-.617,1.957-3.28-1.957-3.28,1.146-.617,2.751,3.9Z" fill="#828282"/>
    </g>
  </g>
</svg>
