<svg xmlns="http://www.w3.org/2000/svg" width="90.493" height="81" viewBox="0 0 90.493 81">
  <g id="Сгруппировать_130" data-name="Сгруппировать 130" transform="translate(-676.232 -5176.648)">
    <path id="Контур_1271" data-name="Контур 1271" d="M716.317,5196.622l-.749,46.23h6.139l.748-42.216,8.535-5.054.414-.964-.115-5.131a4.559,4.559,0,0,0-1.867.382C725.631,5191.433,717.019,5195.461,716.317,5196.622Z" fill="#828282" fill-rule="evenodd"/>
    <path id="Контур_1272" data-name="Контур 1272" d="M714.83,5196.854a20.1,20.1,0,0,1,3.6-2.32c-8.978-7.514-43.322-34.039-33.723-3.606C677.616,5162.589,704.733,5186.55,714.83,5196.854Z" fill="#828282" fill-rule="evenodd"/>
    <g id="Сгруппировать_129" data-name="Сгруппировать 129">
      <path id="Контур_1273" data-name="Контур 1273" d="M684.824,5191.324l-4.638,8.616,7.78,7.5,3.216-8.467-6.358-7.65Zm.149.149,2.918,15.448-3.965-6.981,1.047-8.467Zm-4.937,8.541,11.146-.966L684,5200.162Z" fill="#828282" fill-rule="evenodd"/>
    </g>
    <path id="Контур_1274" data-name="Контур 1274" d="M749.574,5241.8l-1.546.012c5.386,18.8-18.315,18.72-34.385,1.567-1.441.177-2.936-.118-4.145.069-.365-.064-.9.223,10.557,8C741.62,5265.266,752.717,5253.277,749.574,5241.8Z" fill="#828282" fill-rule="evenodd"/>
    <path id="Контур_1275" data-name="Контур 1275" d="M692.117,5215.649l-.263,25.643s-4.744-.327-5.732-.916.329-3.99-.659-4.317-3.36,3.336-4.415,2.747-5.007-3.14-4.809-7.2,7.049-8.766,7.379-8.57.593,2.617,1.449,1.9c.683-.573,4.489-6.586,6.116-8.822A.983.983,0,0,1,692.117,5215.649Z" fill="#828282" fill-rule="evenodd"/>
    <path id="Контур_1276" data-name="Контур 1276" d="M700.551,5208.781h-.577l-5.485,4.449s-1.12,28.586.066,28.652,5.205.915,5.534.392-.065-4.513.725-4.513,1.977,4.84,2.7,4.579,1.976-4.71,2.9-4.776-.593,5.3,1.12,5.3H713.4l.527-44.613-6.391,4.056s-3.492,22.11-3.954,22.241S701.078,5208.912,700.551,5208.781Z" fill="#828282" fill-rule="evenodd"/>
    <path id="Контур_1277" data-name="Контур 1277" d="M742.38,5186.979l-7.555.719-.8.457-1.184,46.434s-.592,7.575-.066,7.51,6.513.261,6.71-.522.131-11.952.131-11.952,8.223-6.139,9.736-10.188,1.841-11.428-.066-19-3.421-13.258-6.907-13.454Zm-1.513,8.033c.592-.065,4.21,12.8,4.144,17.372s-3.815,7.968-4.8,8.1,0-19.788,0-21.355S740.275,5195.078,740.867,5195.012Z" fill="#828282" fill-rule="evenodd"/>
    <path id="Контур_1278" data-name="Контур 1278" d="M746.064,5187.306c-.2-.065,2.631,5.878,3.026,7.968s6.709,8.1,9.143,18.155,2.368,9.8-.132,9.731-7.433.131-7.433.131-.526,5.681.461,5.877,8.09-.261,8.156.523-.789,3.33-4.144,4.571-10.064,1.045-10.919,1.437-.987,5.616-.461,5.812,15-.587,18.155-3.461,5.855-9.535,4.408-17.111a90.7,90.7,0,0,0-6.249-19,39.922,39.922,0,0,0-5.6-8.968,22,22,0,0,0-5.116-4.466A12.684,12.684,0,0,0,746.064,5187.306Z" fill="#828282" fill-rule="evenodd"/>
    <path id="Контур_1279" data-name="Контур 1279" d="M723.012,5201.361v2.824a69.586,69.586,0,0,1,9.8,12.2c.009-1.167.075-1.515.085-2.682a84.25,84.25,0,0,0-9.137-12.8Z" fill="#828282" fill-rule="evenodd"/>
    <path id="Контур_1280" data-name="Контур 1280" d="M741.7,5228.41a6.188,6.188,0,0,1,.946-.678c1.572,2.2,2.791,4.891,4.362,7.242l-1.666.141A26.92,26.92,0,0,0,741.7,5228.41Z" fill="#828282" fill-rule="evenodd"/>
    <path id="Контур_1281" data-name="Контур 1281" d="M691.728,5215.26a2.7,2.7,0,0,1,.917-1.024,21.074,21.074,0,0,1-4.322-6.587.83.83,0,0,1-.2.119A42.376,42.376,0,0,0,691.728,5215.26Z" fill="#828282" fill-rule="evenodd"/>
  </g>
</svg>
