<svg xmlns="http://www.w3.org/2000/svg" width="41.484" height="23.729" viewBox="0 0 41.484 23.729">
  <path id="Контур_20" data-name="Контур 20" d="M85.1,6246.486c0,1.236-.025,2.473.014,3.707a3.276,3.276,0,0,0,.305,1.275.72.72,0,0,0,1.218.29,9.563,9.563,0,0,0,1.427-1.489,28.627,28.627,0,0,0,3.953-7.108,2.07,2.07,0,0,1,2.323-1.561c2.025.08,4.057-.01,6.086,0,1.794.008,2.231.649,1.5,2.311a15.208,15.208,0,0,1-1.449,2.58c-1.1,1.582-2.284,3.107-3.433,4.656-.265.357-.546.7-.792,1.074-1.049,1.577-.947,2.225.429,3.6,1.466,1.467,2.928,2.942,4.323,4.476a6.071,6.071,0,0,1,1.113,1.9c.343.9.062,1.407-.842,1.724a4.208,4.208,0,0,1-1.3.194c-1.682.031-3.367-.019-5.047.052a4.63,4.63,0,0,1-3.507-1.308c-.826-.777-1.569-1.643-2.357-2.462a13.112,13.112,0,0,0-1.264-1.248,1.232,1.232,0,0,0-2.084.417,6.847,6.847,0,0,0-.544,1.675,6.31,6.31,0,0,0-.071,1.034c-.1,1.332-.522,1.732-1.812,1.85a14.973,14.973,0,0,1-13.362-5.666,59.249,59.249,0,0,1-8.858-14.857c-.635-1.448-.241-1.979,1.385-2,1.683-.021,3.367.034,5.048-.025a2.273,2.273,0,0,1,2.369,1.592c.895,1.981,1.866,3.933,2.92,5.833a11.8,11.8,0,0,0,1.976,2.568c.833.833,1.59.629,1.835-.5a27.7,27.7,0,0,0,.467-3.959,11.461,11.461,0,0,0-.158-2.067c-.143-1.233-.46-2.324-1.91-2.67-.542-.129-.593-.521-.129-.837a4.3,4.3,0,0,1,1.578-.76,20.9,20.9,0,0,1,6.937-.039,1.852,1.852,0,0,1,1.748,2.037c.054,1.234.012,2.472.012,3.708Z" transform="translate(-60.784 -6240.47)" fill="#dadada"/>
</svg>
