<svg width="48" height="48" viewBox="0 0 48 48" fill="none" xmlns="http://www.w3.org/2000/svg">
<path d="M19.5 3.00005C22.5 3.00099 25.5 2.99724 28.5 3.00193C28.5028 3.50068 28.5 4.00036 28.4991 4.49911C27.2494 4.50193 25.9997 4.49911 24.75 4.50005C24.75 6.25036 24.75 7.99974 24.75 9.75005C26.3128 9.75005 27.8756 9.74911 29.4375 9.75099C30.5859 9.7538 31.7334 10.0294 32.7544 10.5563C34.4588 11.4207 35.7825 12.9816 36.3872 14.791C36.6497 15.6151 36.7716 16.4794 36.7519 17.3447C36.7472 22.1251 36.7528 26.9063 36.7491 31.6876C36.7519 33.4257 36.0966 35.1526 34.9584 36.4632C34.6031 36.901 34.1513 37.2413 33.7322 37.6116C33.7378 37.7616 33.8184 37.8957 33.8766 38.0307C34.1606 38.6007 34.4325 39.1763 34.7081 39.7501C35.2331 40.8432 35.7591 41.9354 36.2831 43.0294C36.4781 43.4597 36.7209 43.8685 36.8691 44.3194C36.4247 44.5219 35.9925 44.7488 35.5416 44.9363C35.1797 44.2144 34.8394 43.4822 34.4888 42.7547C29.5238 42.7444 24.5588 42.7538 19.5928 42.7501C17.7253 42.7594 15.8569 42.7332 13.9894 42.7632C13.6697 43.4485 13.3491 44.1357 13.005 44.8088L12.9356 44.836C12.4931 44.6588 12.075 44.4244 11.6409 44.2276C12.63 42.1013 13.6838 40.006 14.6681 37.8779C13.3172 36.991 12.2325 35.6888 11.6878 34.1597C11.3906 33.3394 11.2397 32.4666 11.25 31.5938C11.25 26.7497 11.2491 21.9057 11.25 17.0616C11.2463 15.4594 11.8003 13.8657 12.7847 12.6029C13.8694 11.1826 15.4988 10.1954 17.2538 9.87099C18.1181 9.70224 19.0013 9.75943 19.875 9.75005C21 9.74911 22.125 9.75005 23.25 9.74911C23.2491 7.99974 23.25 6.25036 23.2491 4.50099C22.0003 4.49911 20.7506 4.50099 19.5019 4.50005C19.4991 4.00036 19.4981 3.49974 19.5 3.00005ZM14.4159 13.0107C13.3397 14.0972 12.7228 15.6263 12.7509 17.1563C12.7491 21.9694 12.7509 26.7816 12.75 31.5938C12.7359 33.1566 13.3538 34.7644 14.5294 35.8144C15.1528 36.5194 16.0294 36.9713 16.9172 37.2563C17.8716 37.5694 18.8859 37.4907 19.875 37.5001C23.0625 37.4991 26.25 37.501 29.4384 37.4991C30.9591 37.501 32.4684 36.8682 33.5353 35.7854C34.6172 34.7176 35.2509 33.2082 35.2491 31.6876C35.2509 26.9382 35.2481 22.1879 35.2509 17.4376C35.3203 15.8288 34.7578 14.1376 33.5663 13.0294C32.5144 11.8529 30.9075 11.236 29.3438 11.2501C25.7813 11.251 22.2188 11.2491 18.6563 11.251C17.0813 11.2219 15.5091 11.8782 14.4159 13.0107ZM29.4375 38.9991C25.7813 39.0001 22.1241 39.0029 18.4678 38.9982C17.7188 39.0104 16.995 38.8154 16.2703 38.656C16.1963 38.6101 16.1203 38.5669 16.0425 38.5285C15.5869 39.4238 15.1697 40.3388 14.7281 41.2416C21.0703 41.2576 27.4125 41.2491 33.7547 41.2463C33.615 40.9247 33.4622 40.6079 33.2981 40.2976C33.0009 39.6544 32.7028 39.0094 32.3681 38.3841C31.4409 38.7713 30.4463 39.0066 29.4375 38.9991Z" fill="#373A36"/>
<path d="M15.7501 15.8382C15.7173 15.4744 15.9573 15.0976 16.3229 15.0244C16.6294 14.9776 16.9407 15.0029 17.2501 14.9991C21.9704 15.001 26.6916 14.9982 31.4129 15.0001C31.8394 14.9532 32.2604 15.3066 32.2454 15.7435C32.2604 16.4954 32.2435 17.2491 32.2501 18.001C32.251 19.9407 32.2473 21.8794 32.2529 23.8191C32.2529 24.0694 32.2285 24.3507 32.0298 24.5307C31.8507 24.7285 31.5694 24.7529 31.3182 24.7529C27.1294 24.7463 22.9398 24.7519 18.751 24.7501C17.9982 24.7472 17.2454 24.7576 16.4926 24.7454C16.0969 24.7576 15.7426 24.4022 15.7538 24.0066C15.7444 21.2841 15.7529 18.5607 15.7501 15.8382ZM17.251 16.501C17.2491 18.751 17.251 21.0001 17.2501 23.2501C17.7498 23.251 18.2504 23.2501 18.7501 23.2491C22.7494 23.2501 26.7498 23.2501 30.7491 23.2491C30.7491 21.4997 30.7519 19.7504 30.7482 18.001C30.7519 17.5004 30.751 17.0007 30.7501 16.501C26.2501 16.5001 21.751 16.4991 17.251 16.501Z" fill="#373A36"/>
<path d="M17.9439 28.7466C18.9705 28.4626 20.1105 29.236 20.2305 30.2926C20.418 31.3716 19.4711 32.4619 18.3742 32.4132C17.2924 32.4413 16.3652 31.3669 16.5442 30.3001C16.6417 29.5632 17.2221 28.921 17.9439 28.7466Z" fill="#373A36"/>
<path d="M28.3502 28.7447C29.4349 28.4447 30.6255 29.3428 30.6405 30.465C30.7249 31.4925 29.8071 32.4422 28.7814 32.4131C27.7924 32.4413 26.9055 31.5497 26.9271 30.5634C26.9008 29.7206 27.5346 28.9331 28.3502 28.7447Z" fill="#373A36"/>
</svg>
