<?xml version="1.0" encoding="utf-8"?>
<!-- Generator: Adobe Illustrator 24.0.2, SVG Export Plug-In . SVG Version: 6.00 Build 0)  -->
<svg version="1.1" id="Layer_1" xmlns="http://www.w3.org/2000/svg" xmlns:xlink="http://www.w3.org/1999/xlink" x="0px" y="0px"
	 viewBox="0 0 21 21" style="enable-background:new 0 0 21 21;" xml:space="preserve">
<style type="text/css">
	.st0{fill:none;stroke:#3C3C3B;stroke-miterlimit:10;}
	.st1{fill:#3C3C3B;}
</style>
<g>
	<g>
		<g>
			<path class="st0" d="M17.6,3.4c3.9,3.9,3.9,10.2,0,14.1c-9.7,9-23.1-4.4-14.1-14.1C7.4-0.5,13.7-0.5,17.6,3.4z"/>
		</g>
	</g>
	<g>
		<g>
			
				<rect x="4.5" y="10.3" transform="matrix(0.7071 -0.7071 0.7071 0.7071 -4.9136 10.2662)" class="st1" width="10.9" height="1.6"/>
		</g>
		<g>
			<g>
				<polygon class="st1" points="14.6,14.9 13.1,14.9 13.4,7.6 6.1,7.9 6.1,6.4 14.9,6.1 				"/>
			</g>
		</g>
	</g>
</g>
</svg>
